<svg width="25" height="24" viewBox="0 0 25 24" fill="none" xmlns="http://www.w3.org/2000/svg">
<path d="M23.3235 17.4715V20.7834C23.3286 22.0495 22.1903 23.1067 20.912 22.9914C9.87977 23 1.32422 14.365 1.33285 3.40678C1.21773 2.13538 2.2697 1.0013 3.53413 1.00011H6.85263C7.38946 0.994834 7.9099 1.18456 8.31694 1.53392C9.47416 2.52716 10.2185 5.89839 9.9321 7.23856C9.70851 8.28489 8.65377 9.01691 7.93668 9.73258C9.51137 12.4964 11.8043 14.7849 14.5737 16.3565C15.2908 15.6408 16.0243 14.5881 17.0727 14.365C18.4176 14.0787 21.8105 14.8241 22.7997 15.9894C23.1505 16.4026 23.3369 16.9301 23.3235 17.4715Z" stroke="black" stroke-width="2" stroke-linecap="round" stroke-linejoin="round"/>
</svg>
